{
    "category": {
        "price": {
            "type": "cont",
            "direction": "input",
            "file": "pre_process_NN.gzip"
        },
        "country_id": {
            "type": "single",
            "direction": "input",
            "file": "pre_process_NN.gzip"
        },
        "title": {
            "type": "txt",
            "direction": "input",
            "file": "title.gzip"
        },
        "category_id": {
            "type": "single",
            "direction": "output",
            "parent": null,
            "file": "pre_process_NN.gzip"
        }
    },
    "beer": {
        "price": {
            "type": "cont",
            "direction": "input",
            "file": "pre_process_NN.gzip"
        },
        "country_id": {
            "type": "single",
            "direction": "input",
            "file": "pre_process_NN.gzip"
        },
        "title": {
            "type": "txt",
            "direction": "input",
            "file": "title.gzip"
        },
        "super_brand_id": {
            "type": "single",
            "direction": "output",
            "parent": null,
            "file": "pre_process_NN.gzip"
        },
        "brand_id": {
            "type": "single",
            "direction": "output",
            "parent": "super_brand_id",
            "file": "pre_process_NN.gzip"
        },
        "serving_type_id": {
            "type": "single",
            "direction": "output",
            "parent": null,
            "file": "pre_process_NN.gzip"
        },
        "volume_id": {
            "type": "single",
            "direction": "output",
            "parent": null,
            "file": "pre_process_NN.gzip"
        }
    },
    "beer_field_order": [
        "super_brand_id",
        "serving_type_id",
        "volume_id",
        "brand_id"
    ]
}