bar_product_id,title,price,category_id,country_id,pos_category_name,brand_id,super_brand_id,volume_id,beer_type_id,serving_type_id,modified_at,source,bar_id
9416,V. KRONENBOURG,4.35,1,Canada,Beer,81,0,0.355,1,2,2019-04-10 13:31:46.0,2,1
9359,STELLA 4$,4,1,Canada,BIERES,44,5,0.473,1,2,2018-07-10 13:30:34.0,1,2
9141,NEWCASTEL,8,1,Canada,BIERE BOUTEILLE,8,0,0.34,11,1,2018-05-09 13:12:55.0,1,3
7977,SNAKEBITE,8.25,1,Canada,BIERE EN FUT,44,5,0.296,1,2,2018-05-09 13:12:55.0,0,4
7977,SNAKEBITE,8.25,1,Canada,BIERE EN FUT,215,0,0.296,5,2,2018-05-09 13:12:55.0,0,5
7791,V WHITE VELVET,5.25,1,Canada,BIERE EN FUT,59,6,0.148,4,2,2018-05-09 13:12:55.0,1,6
7791,V WHITE VELVET,5.25,1,Canada,BIERE EN FUT,215,0,0.148,5,2,2018-05-09 13:12:55.0,0,7
