﻿sides,,,,,,,,,,,
others,,,,,cusine,cooking method,course,type,sub type,shareable,"""toppings"""
sandwich,,,,,brazilian,fried,desert,,,yes,
pastry,,,,,italian,backed ,main,,,no,
desert,,,,,Korean,stired,appatizer,,,,
burger,,,,,Japanese,bolied,side dish,,,,
main other,,,,,,,,,,,
cheese,,,,,,,,,,,
salads,,,,,,,,,,,
fries,,,,,,,,,,,
all fish dishes,,,,,,,,,,,
meat,,,,,,,,,,,
chicken main,,,,,,,,,,,
vegy,,,,,,,,,,,
pasta main,,,,,,,,,,,
pizza,,,,,,,,,,,
mexcian food,,,,,,,,,,,
