﻿id,name,street
19580,Scrumptious on Summer Cafe,"Shop 8, Oranage Arcade, 142 - 146 Summer Street"
19581,Belmont Hotel,77 High Street
19582,Panama Dining Room,231 Smith Street
19583,Anchor Kitchen and Bar,16 Market St
19584,Baroq House,9- 13 Drewery La
19585,Ziggy's Eatery,195 Carlisle Street
19586,The Workers Club,51 Brunswick Street
19587,Tocco Italiano Newstead,1/3 Florence Street
19588,Tonka,141 Flinders Lane
19589,Burkes Hotel,96 Belmore Street
19590,Taphouse Hotel - Sydney,122 Flinders Street
19591,Bhang,1/2A Mitchell Street
19592,Ebony and Ivory,189 Moorabool Street
19593,Acorn on Forest,375 Forest Rd
19594,The Rock Bar & Grill - Sugar Coast Hospitality,1A Quay St
19595,Bodhi Restaurant & Bar,2-4 College Street
19596,Tinto,555 Burwood Rd
19597,Eve's On the River,53 Vernon Tce
19598,Maria's Italian Restaurant,368 Harbour Dr
19599,Ester - Pig Mary PTY LTD,46 - 52 Meagkar Street
19600,Bar SK,90 Smith Street
19601,Kabalason Indian Cafe and Restaurant,43d
19602,Freddie Wimpoles (The George Hotel),125 Fitzroy St
19603,Pier 8 - Millers Point,23 Hickson Rd
19604,The Rochester Hotel,202 Johnston St
19605,Bohemia Cafe & Bar,127 Kepler St
19606,East Brunswick Hotelo,280 Lygon Street
19607,The Fifth Province,3/60 Fitzroy Street
19608,Little Bonny',5 Carter Rd
19609,Mr Pilgrim,"SHOP F039, Chadstone Shopping Centre"
19610,12 O'Clock Somewhere,104 Melbourne Rd
19611,Spread Eagle Hotel,"372, Bridge Road"
19612,Coquun,396 High St
19613,Irish Murphy's Ballarat,"36 Sturt St,"
19614,Motorwagen,300 Adelaide St
19615,Ten Toes Brewing,Address: 127a Sugar Rd
19616,Lorne Central,150 Mountjoy Parade
19617,Dead Ringer,413 Bourke Street
19618,St Andrews Brewery,160 Sandy Rd
19619,The Roy,401 Brunswick st
19620,Friends Of Mine,506 Swan St
19621,Ripples - Chowder Bay,Chowder Bay Rd
19622,Rainbow Hotel,27 St David Street
19623,Cafe Jilarty at Rainbow,12 Rainbow Beach Rd
19624,Restaurant Hubert,15 Bligh St
19625,Lemas,"Shop 3, 867 South West Hwy"
19626,Soul Burger - Glebe,111 Glebe Point Road
19627,Hemingways Brewery Port Douglas,44 Wharf Street
19628,White Elephant,Gnarabup Rd
19629,Ziggy's South Melbourne,"263 , Coventry Street"
19630,The Hatter and the Hare [Removed],"1/21, Scorsby Road"
19631,Tallwood Eatery,"Shop 2/85, Tallwood Avenue"
19632,Fusion Restaurant,14-15 Discovery Drive
19633,Rambla,39/85 South Perth Esplanade
19634,Boathouse Patonga Hotel,8 Patonga Drive
19635,Johnny Fishbone Wine Parlour,185 Darlinghurst Rd
19636,Blutes Bar,322 Brunswick St 
19637,Burrow Bar,"De Mestre Pl, Sydney NSW 2000"
19638,Black Cat,252 Brunswick Street
19639,The Corporate Moose,72 Langtree Mall
19640,Baby Burgers Rock,1B Morton Ave
19641,Stellar Bendigo Hotel - Jarman Group,58 Bull St
19642,Golden City Hotel,427 Sturt St Ballarat
19643,Gem Bar and Dining Room Pty Ltd,289 Wellington St
19644,Sozai,1221 High St
19645,The George Public Bar,127 Fitzroy Street
19646,Tucks - Montalto,33 Shoreham Rd
19647,MD s Italian Kitchen & Bar,Shop 8/9 Brunswick St
19648,CBar,Gregory Street Headland
19649,Tinys,250 St Georges Terrace
19650,Mandys [Removed],"Shop 26, Whitsunday Plaza"
19651,Zukes Place,"1641 Burwood Hwy,"
19652,Lake Mountain Bistro,616 St Kilda Rd
19653,Mjolner Bar Sydney,26-271 Cleveland Street
19654,Ciao Cielo,115 Bay Street
19655,Bellucci,264 - 278 George street
19656,Yen Teppanyaki,"34 Sunshine Beach Road, Noosa junction"
19657,Thaigga,107 Fitzmaurice St
19658,Manjits On Crown,52 - 54 Crown St
19659,Deck Bar & Dining,23 The Strand
19660,Reviver,37A Mann Street
19661,The Bungalow Restaurant,32 High Street
19662,Radio Mexico St Kilda,11-13 Carlisle Street
19663,Brother of Mine,10/61 Makybe Drive
19664,Hadiqa,"Hibernian Place, Top Foor"
19665,Catalina Restaurant,Lyne Park
19666,Hemingways Brewery Cairns,Shed 2 Cairns Wharf
19667,Silks Cafe,170 Phillips Street
19668,Zinc Port Douglas,"Portico 3, 53-61 Macrossan Street"
19669,Redfern Surf Club,60 Botany Rd
19670,Stowaway Freshwater Bar,1-3 Moore Rd
19671,Poly - The Famous Players,74-76 Commonwealth St
19672,Buffalo's Burgers & Wings,361 Macquarie Street
19673,PWTN,331 Mair Street
19674,Paramount Coffee Project,80 Commonwealth St
19675,Squires Loft - Geelong,76 Preston Street
19676,Longstocking Brewery,"3546 Princes Hwy,"
19677,Pillars Of Guidance [Removed],9-11 Green St
19678,Louder Louder,47 Lake Street
19679,Half Acre,112 Munro St
19680,Radleys - MetCentre,273 George St
19681,Piccolino (Noosa),8 Hastings Street
19682,Mordeo Bistro,126 Phillip Street
19683,House Of Brews,17 Orchid Ave
19684,Jasmin 1,118-120 Marion Street
19685,Suburban Burger,75 Lynbrook Blvd
19686,Coda Restaurant,Basement 141 Flinders Lane
19687,The Local Taphouse - Melbourne,184 Carlisle Street
19688,The Roosevelt,32 Orwell Street
19689,Thirsty Crow,153 fitzmaurice street
19690,Espresso Warriors - Parramatta [Removed],Level 4 175/159 Church St
19691,Mister Hoffman,85a HOFFMANS RD
19692,Penny Lane One Cafe Ranwick,81-117 Broadway
19693,Redfern Continental,180 Redfern St
19694,Rice Paper Scissors North Fitzroy,309 Brunswick Street
19695,Shifty's,375 Brunswick St
19696,Mitchell Harris Wines,38 Doveton Street
19697,Orient East,348 ST. Kilda Rd
19698,Peak Wine Bar,11 Ocean St
19699,St Ali,12 - 18 Yarra Pl
19700,Auction Rooms,103-107 Errol st
19701,Uncle Collins,"Level 1, 15 Collins Street"
19702,Yarrawonga Hotel,35 Belmore Street
19703,Cuckoo Callay Surry Hills,413 - 415 Crown Street
19704,Sue's Bar and Grill,3 First Avenue
19705,Rice Paper Sister,13-15 Hardware Lane
19706,Eau De Vie,110 Burton Street
19707,Garuma,2/346 Proserpine Shute Harbour Road Airlie Beach
19708,Noosa Boathouse,194 Gympie Terrace
19709,Ricks Garage,14-16 Margaret St
19710,Montien Thai Kitchen,95 Cronulla Street
19711,Courtyard Cairns,91 Esplanade
19712,Shorehouse - Townsville,118 The Strand
19713,Spice Monkey,"Shop 4, 2-6 Wharf Street"
19714,Bouvier Bar & Grill,159 Lygon Street
19715,School of 7 Bells,33-35 Chapel Street
19716,Dear Liza,"G10, 181 St Kilda Road"
19717,10 Hastings Street Cafe,10 Hastings Street
19718,New Empire Hotel Beechworth,10 Camp Street
19719,Red Love,401 Swanston Street
19720,SPQR Pizzeria,26 Liverpool Street
19721,Frankies Pizza By the Slice,50 Hunter Street
19722,The Goods Shed,71 Church Street
19723,Bosozoku,34a Bray Street
19724,Piano Bar Geelong,26 Malop Street
19725,Penny Lane (Ultimo),"UTS Broadway Building Level 1 81-117 Broadway, "
19726,Khao Pla,370 Victoria Avenue
19727,Sushi Sankaku,535A Sydney Road
19728,Mulberry Group - Higher Ground,650 Little Bourne Street
19729,Mulberry Group - Top Paddock,658 Church Street
19730,Bluebottles Brassie,53 Beach Street
19731,Howlin Wolf Bar Wollongong,53-61 Crown Street
19732,Jo Jo's Restaurant,"170 Melbourne St,"
19733,Prince Alfred Hotel,355 Bay Street
19734,The District Brasserie,2 Chiefly Square
19735,The District Cafe,2 Chiefly Square
19736,Pt Leo Estate,3649 Frankston Flinders Road
19737,The cottage Bar & Kitchen,342 Darling Street
19738,Rare Steakhouse - Downtown King St,42-44 King Street
19739,Rare Steakhouse - Uptown Lt Collins St,61 Little Collins St
19740,Spaghetti house,23 Little Stanley St
19741,Soul Burger - Randwick,49 Perouse Rd
19742,Altitude on Montville,94-96 Main St
19743,Drake Eatery,Curlewis St & Gould St
19744,CafÃƒÂ© Shenkin - Erskineville,53 Erskineville Road
19745,Shenkin Kitchen - Enmore,129 Enmore Road
19746,BonÃ‚Â Tempo,416-418 Brunswick St
19747,Monarch Hotels Pty Ltd - Belmore Hotel,383 Burwood Road
19748,Monarch Hotels Pty Ltd - Banksia Hotel,288 Princes Hwy
19749,Carne Grill,1 E Ridge Dr
19750,Smokin Joes Espresso Bar,1 Sizer Street
19751,Banksii Hotel,33 Barangaroo Avenue
19752,Baby Black Espresso Bar,10 Church St
19753,Electric Venue,23 Logan Rd
19754,The Flowerdale Hotel,3325 Whittlesea Yea Road
19755,Ripples - Milson's Point,1 Olympic Drive
19756,Romolo CafÃƒÂ© - The Strand,The Strand Arcade
19757,Eureka Bistro,316 Sturt St
19758,Soul Burger - Parramatta,316 Church St
19759,Reef Bar and Grill,2-6 Wharf Grill
19760,Bistro Elba,100-102 Ocean Beach Road
19761,Miss Moses,581 Sydney Road
19762,Flavour of India,128 New South Head Road
19763,Mojo Record Bar,73 York Street
19764,Tolga Hotel,23 Main Street
19765,Manjits at the wharf,49 Lime street
19766,Mr West,106 Nicholson Street
19767,White Horse Hotel,381 Crown Street
19768,Stix CafeÃ‚Â Martin Place,14-18 Chapel St
19769,Stix CafeÃ‚Â Shelley Street,1 Shelley Street
19770,Forty West,6 Amity Way
19771,Star Hotel Echuca - Jarman Group,45 Murray Esp
19772,Mister Minh,389 Bridge Road
19773,Spicers Hidden Vale,617 Mount Mort Road
19774,Mjolner Bar Melbourne,106 Hardware St
19775,Lincoln Hotel,91 Cardigan St
19776,The Camfield,1 Roger Mackay Drive
19777,The Botanist Kirribilli,17 Willoughby St Kirribilli
19778,The Roc up Cafe,5 Whitham Road
19779,Taste Of Thai,434 Sydney Road
23194,Buffalo Dining Club,116 Surrey Street
